{
  "extends": ["tslint:latest"],
  "rules":{
      "ordered-imports": false,
      "interface-name": false,
      "no-implicit-dependencies": [true, "dev"],
      "object-literal-sort-keys": false,
      "arrow-parens": [true, "ban-single-arg-parens"],
      "quotemark": false,
      "no-submodule-imports": false
  }
}