// Jest Snapshot v1, https://goo.gl/fbAQLP

exports[`<CurrencyDropdown /> renders correctly 1`] = `
<div>
  <select
    onChange={[Function]}
    value="NZD"
  >
    <option
      key="NZD"
      value="NZD"
    >
      NZD
    </option>
    <option
      key="USD"
      value="USD"
    >
      USD
    </option>
    <option
      key="AUD"
      value="AUD"
    >
      AUD
    </option>
    <option
      key="EUR"
      value="EUR"
    >
      EUR
    </option>
    <option
      key="PHP"
      value="PHP"
    >
      PHP
    </option>
    <option
      key="IDR"
      value="IDR"
    >
      IDR
    </option>
    <option
      key="JPY"
      value="JPY"
    >
      JPY
    </option>
    <option
      key="PLN"
      value="PLN"
    >
      PLN
    </option>
    <option
      key="TRY"
      value="TRY"
    >
      TRY
    </option>
  </select>
</div>
`;
